\relax 
\providecommand\zref@newlabel[2]{}
\providecommand\hyper@newdestlabel[2]{}
\providecommand\BKM@entry[2]{}
\@nameuse{bbl@beforestart}
\providecommand\HyperFirstAtBeginDocument{\AtBeginDocument}
\HyperFirstAtBeginDocument{\ifx\hyper@anchor\@undefined
\global\let\oldcontentsline\contentsline
\gdef\contentsline#1#2#3#4{\oldcontentsline{#1}{#2}{#3}}
\global\let\oldnewlabel\newlabel
\gdef\newlabel#1#2{\newlabelxx{#1}#2}
\gdef\newlabelxx#1#2#3#4#5#6{\oldnewlabel{#1}{{#2}{#3}}}
\AtEndDocument{\ifx\hyper@anchor\@undefined
\let\contentsline\oldcontentsline
\let\newlabel\oldnewlabel
\fi}
\fi}
\global\let\hyper@last\relax 
\gdef\HyperFirstAtBeginDocument#1{#1}
\providecommand\HyField@AuxAddToFields[1]{}
\providecommand\HyField@AuxAddToCoFields[2]{}
\babel@aux{italian}{}
\babel@aux{italian}{}
\pgfsyspdfmark {pgfid1}{6708151}{48902215}
\@writefile{@@@}{\chapterbegin }
\pgfsyspdfmark {pgfid3}{0}{55380990}
\pgfsyspdfmark {pgfid2}{6708151}{48902215}
\BKM@entry{id=1,open,dest={706172742E31},color={.95294 .4 .09804},flags=2,srcline={172}}{50617274652049205C323034204573657263697A69}
\@writefile{toc}{\contentsline {part}{\@mypartnumtocformat {I}{Esercizi}}{7}{part.1}\protected@file@percent }
\ttl@writefile{ptc}{\ttl@starttoc{default@1}}
\pgfsyspdfmark {pgfid5}{0}{55380990}
\pgfsyspdfmark {pgfid4}{6708151}{33817350}
\@input{./capitoli/01_statica/statica.aux}
\BKM@entry{id=2,open,dest={636861707465722E31},flags=2,srcline={2}}{312053746174696361}
\BKM@entry{id=3,open,dest={73656374696F6E2E312E31},srcline={2}}{312E3120446566696E697A696F6E6520646920666C7569646F}
\BKM@entry{id=4,open,dest={73656374696F6E2E312E32},srcline={23}}{312E3220457175617A696F6E6520646920657175696C696272696F3A20666F726D6120696E74656772616C65206520646966666572656E7A69616C65}
\@writefile{lof}{\contentsline {xpart}{Esercizi}{9}{part.1}\protected@file@percent }
\@writefile{lot}{\contentsline {xpart}{Esercizi}{9}{part.1}\protected@file@percent }
\@writefile{toc}{\contentsline {xpart}{Esercizi}{9}{part.1}\protected@file@percent }
\pgfsyspdfmark {pgfid7}{0}{55380990}
\pgfsyspdfmark {pgfid6}{5594039}{48902215}
\BKM@entry{id=5,open,dest={73656374696F6E2E312E33},srcline={46}}{312E33204C656767652064692053746576696E6F}
\BKM@entry{id=6,open,dest={73656374696F6E2E312E34},srcline={81}}{312E342047616C6C65676769616D656E746F20646920756E20636F72706F20696D6D6572736F20696E20756E20666C7569646F}
\BKM@entry{id=7,open,dest={73656374696F6E2E312E35},srcline={7}}{312E35204573657263697A69}
\@input{./capitoli/02_tensSup/tensSup.aux}
\BKM@entry{id=8,open,dest={636861707465722E32},flags=2,srcline={2}}{322054656E73696F6E6520737570657266696369616C65}
\pgfsyspdfmark {pgfid11}{0}{55380990}
\pgfsyspdfmark {pgfid10}{5594039}{48902215}
\@input{./capitoli/03_cinematica/cinematica.aux}
\BKM@entry{id=9,open,dest={636861707465722E33},flags=2,srcline={2}}{332043696E656D6174696361}
\BKM@entry{id=10,open,dest={73656374696F6E2E332E31},srcline={6}}{332E31204465736372697A696F6E6520696E74656772616C65206C616772616E6769616E612065642065756C657269616E61}
\pgfsyspdfmark {pgfid13}{0}{55380990}
\pgfsyspdfmark {pgfid12}{5594039}{48902215}
\BKM@entry{id=11,open,dest={73656374696F6E2E332E32},srcline={51}}{332E32204465736372697A696F6E652070756E7475616C65206C616772616E6769616E612065642065756C657269616E61}
\BKM@entry{id=12,open,dest={73656374696F6E2E332E33},srcline={146}}{332E332056656C6F6369745C33343020646920747261736C617A696F6E652C20726F74617A696F6E652065206465666F726D617A696F6E65}
\BKM@entry{id=13,open,dest={73656374696F6E2E332E34},srcline={299}}{332E3420437572766520636172617474657269737469636865}
\@input{./capitoli/04_bilanci/bilanci.aux}
\BKM@entry{id=14,open,dest={636861707465722E34},flags=2,srcline={2}}{342042696C616E6369}
\BKM@entry{id=15,open,dest={73656374696F6E2E342E31},srcline={18}}{342E312042696C616E636920696E20666F726D6120696E74656772616C65}
\pgfsyspdfmark {pgfid29}{0}{55380990}
\pgfsyspdfmark {pgfid28}{5594039}{48902215}
\BKM@entry{id=16,open,dest={73656374696F6E2E342E32},srcline={94}}{342E322042696C616E636920696E20666F726D6120646966666572656E7A69616C65}
\BKM@entry{id=17,open,dest={73656374696F6E2E342E33},srcline={340}}{342E332052656C617A696F6E692064692073616C746F}
\BKM@entry{id=18,open,dest={73656374696F6E2E342E34},srcline={1}}{342E3420417070726F666F6E64696D656E746920737520616C63756E692062696C616E6369}
\BKM@entry{id=19,open,dest={73656374696F6E2E342E35},srcline={13}}{342E3520496E74726F64757A696F6E652061676C69206573657263697A69}
\@input{./capitoli/05_bernoulli/bernoulli.aux}
\BKM@entry{id=20,open,dest={636861707465722E35},flags=2,srcline={2}}{352054656F72656D61206469204265726E6F756C6C69}
\pgfsyspdfmark {pgfid32}{0}{55380990}
\pgfsyspdfmark {pgfid31}{5594039}{48902215}
\@input{./capitoli/06_slnEsatte/slnEsatte.aux}
\BKM@entry{id=21,open,dest={636861707465722E36},flags=2,srcline={2}}{3620536F6C757A696F6E6920657361747465}
\BKM@entry{id=22,open,dest={73656374696F6E2E362E31},srcline={1}}{362E3120496E74726F64757A696F6E652065206C696E656520677569646120706572206C6120736F6C757A696F6E65206465692070726F626C656D69}
\pgfsyspdfmark {pgfid37}{0}{55380990}
\pgfsyspdfmark {pgfid36}{5594039}{48902215}
\@input{./capitoli/07_similitudine/similitudine.aux}
\BKM@entry{id=23,open,dest={636861707465722E37},flags=2,srcline={2}}{372053696D696C69747564696E65}
\BKM@entry{id=24,open,dest={73656374696F6E2E372E31},srcline={2}}{372E312054656F72656D61206469204275636B696E6768616D}
\BKM@entry{id=25,open,dest={73656374696F6E2E372E32},srcline={5}}{372E3220457175617A696F6E69206469204E61766965725C32303553746F6B657320696E636F6D7072696D6962696C6920696E20666F726D61206164696D656E73696F6E616C65}
\pgfsyspdfmark {pgfid47}{0}{55380990}
\pgfsyspdfmark {pgfid46}{5594039}{48902215}
\BKM@entry{id=26,open,dest={73656374696F6E2E372E33},srcline={105}}{372E3320457175617A696F6E6520646920636F6E74696E7569745C3334302065206E756D65726F206469204D616368}
\BKM@entry{id=27,open,dest={73656374696F6E2E372E34},srcline={135}}{372E3420457175617A696F6E69206469204E61766965725C32303553746F6B657320696E2073697374656D69206469207269666572696D656E746F206E6F6E20696E65727A69616C69}
\BKM@entry{id=28,open,dest={73656374696F6E2E372E35},srcline={138}}{372E3520457175617A696F6E6920646920426F757373696E6573712065206E756D657269206469205072616E64746C2C205261796C6569676820652047726173686F66}
\@input{./capitoli/08_aerodinamica/aerodinamica.aux}
\BKM@entry{id=29,open,dest={636861707465722E38},flags=2,srcline={2}}{38204165726F64696E616D696361}
\pgfsyspdfmark {pgfid49}{0}{55380990}
\pgfsyspdfmark {pgfid48}{5594039}{48902215}
\BKM@entry{id=30,open,dest={73656374696F6E2E382E31},srcline={1}}{382E31204D65746F646F20646920486573732D536D697468}
\@input{./capitoli/09_bl/bl.aux}
\BKM@entry{id=31,open,dest={636861707465722E39},flags=2,srcline={2}}{392053747261746F206C696D697465}
\BKM@entry{id=32,open,dest={73656374696F6E2E392E31},srcline={1}}{392E3120457175617A696F6E69206469205072616E64746C2064656C6C6F2073747261746F206C696D697465}
\BKM@entry{id=33,open,dest={73656374696F6E2E392E32},srcline={3}}{392E322053706573736F726920696E74656772616C692064656C6C6F2073747261746F206C696D697465}
\BKM@entry{id=34,open,dest={73656374696F6E2E392E33},srcline={5}}{392E3320457175617A696F6E6520696E74656772616C6520646920566F6E204B61726D616E}
\pgfsyspdfmark {pgfid58}{0}{55380990}
\pgfsyspdfmark {pgfid57}{5594039}{48902215}
\BKM@entry{id=35,open,dest={73656374696F6E2E392E34},srcline={12}}{392E342053747261746F206C696D697465206C616D696E617265207375206C616D696E61207069616E613A20736F6C757A696F6E6520646920426C6173697573}
\@input{./capitoli/10_turbolenza/turbolenza.aux}
\BKM@entry{id=36,open,dest={636861707465722E3130},flags=2,srcline={2}}{31302053746162696C69745C33343020666C7569646F64696E616D696361206520747572626F6C656E7A61}
\BKM@entry{id=37,open,dest={73656374696F6E2E31302E31},srcline={1}}{31302E312053746162696C69745C333430206964726F64696E616D696361}
\pgfsyspdfmark {pgfid60}{0}{55380990}
\pgfsyspdfmark {pgfid59}{5594039}{48902215}
\global\mtcsecondpartfalse
\ttl@finishall
