\relax 
\providecommand\zref@newlabel[2]{}
\providecommand\hyper@newdestlabel[2]{}
\@writefile{toc}{\contentsline {chapter}{\numberline {2}Tensione superficiale}{25}{chapter.2}\protected@file@percent }
\@writefile{lof}{\addvspace {10\p@ }}
\@writefile{lot}{\addvspace {10\p@ }}
\@writefile{lof}{\contentsline {xchapter}{Tensione superficiale}{25}{chapter.2}\protected@file@percent }
\@writefile{lot}{\contentsline {xchapter}{Tensione superficiale}{25}{chapter.2}\protected@file@percent }
\newlabel{ch:tensSup}{{2}{25}{Tensione superficiale}{chapter.2}{}}
\@writefile{toc}{\contentsline {paragraph}{Legge di Young-Laplace.}{25}{section*.10}\protected@file@percent }
\@writefile{toc}{\contentsline {paragraph}{Legge di Young-Laplace in due dimensioni.}{25}{section*.11}\protected@file@percent }
\newlabel{eqn:equil_young_laplace}{{2.5}{26}{Legge di Young-Laplace in due dimensioni}{equation.2.0.5}{}}
\@writefile{toc}{\contentsline {paragraph}{Estensione al caso 3D.}{26}{section*.12}\protected@file@percent }
\zref@newlabel{mdf@pagelabel-9}{\default{2}\page{27}\abspage{27}\mdf@pagevalue{27}}
\zref@newlabel{mdf@pagelabel-10}{\default{2}\page{29}\abspage{29}\mdf@pagevalue{29}}
\zref@newlabel{mdf@pagelabel-11}{\default{2}\page{30}\abspage{30}\mdf@pagevalue{30}}
\@setckpt{./capitoli/02_tensSup/tensSup}{
\setcounter{page}{32}
\setcounter{equation}{24}
\setcounter{enumi}{0}
\setcounter{enumii}{0}
\setcounter{enumiii}{0}
\setcounter{enumiv}{0}
\setcounter{footnote}{0}
\setcounter{mpfootnote}{0}
\setcounter{part}{1}
\setcounter{chapter}{2}
\setcounter{section}{0}
\setcounter{subsection}{0}
\setcounter{subsubsection}{0}
\setcounter{paragraph}{0}
\setcounter{subparagraph}{0}
\setcounter{figure}{0}
\setcounter{table}{0}
\setcounter{NAT@ctr}{0}
\setcounter{parentequation}{0}
\setcounter{notation}{0}
\setcounter{dummy}{0}
\setcounter{numExer}{3}
\setcounter{problem}{0}
\setcounter{exerciseT}{0}
\setcounter{exampleT}{0}
\setcounter{vocabulary}{0}
\setcounter{definitionT}{0}
\setcounter{operatorT}{0}
\setcounter{regolaT}{0}
\setcounter{mdf@globalstyle@cnt}{0}
\setcounter{mdfcountframes}{0}
\setcounter{mdf@env@i}{0}
\setcounter{mdf@env@ii}{0}
\setcounter{mdf@zref@counter}{11}
\setcounter{Item}{0}
\setcounter{Hfootnote}{1}
\setcounter{bookmark@seq@number}{0}
\setcounter{caption@flags}{0}
\setcounter{continuedfloat}{0}
\setcounter{KVtest}{0}
\setcounter{subfigure}{0}
\setcounter{subfigure@save}{3}
\setcounter{lofdepth}{1}
\setcounter{subtable}{0}
\setcounter{subtable@save}{0}
\setcounter{lotdepth}{1}
\setcounter{tcbbreakpart}{0}
\setcounter{tcblayer}{0}
\setcounter{AM@survey}{0}
\setcounter{mtc}{2}
\setcounter{minitocdepth}{2}
\setcounter{ptc}{1}
\setcounter{parttocdepth}{2}
\setcounter{section@level}{4}
\setcounter{minilofdepth}{2}
\setcounter{minilotdepth}{2}
\setcounter{partlofdepth}{2}
\setcounter{partlotdepth}{2}
\setcounter{sectlofdepth}{2}
\setcounter{sectlotdepth}{2}
\setcounter{ttl@toc@default}{1}
}
