\relax 
\providecommand\zref@newlabel[2]{}
\providecommand\hyper@newdestlabel[2]{}
\providecommand\BKM@entry[2]{}
\@nameuse{bbl@beforestart}
\providecommand\HyperFirstAtBeginDocument{\AtBeginDocument}
\HyperFirstAtBeginDocument{\ifx\hyper@anchor\@undefined
\global\let\oldcontentsline\contentsline
\gdef\contentsline#1#2#3#4{\oldcontentsline{#1}{#2}{#3}}
\global\let\oldnewlabel\newlabel
\gdef\newlabel#1#2{\newlabelxx{#1}#2}
\gdef\newlabelxx#1#2#3#4#5#6{\oldnewlabel{#1}{{#2}{#3}}}
\AtEndDocument{\ifx\hyper@anchor\@undefined
\let\contentsline\oldcontentsline
\let\newlabel\oldnewlabel
\fi}
\fi}
\global\let\hyper@last\relax 
\gdef\HyperFirstAtBeginDocument#1{#1}
\providecommand\HyField@AuxAddToFields[1]{}
\providecommand\HyField@AuxAddToCoFields[2]{}
\babel@aux{italian}{}
\babel@aux{italian}{}
\pgfsyspdfmark {pgfid1}{6708151}{48902215}
\@writefile{@@@}{\chapterbegin }
\pgfsyspdfmark {pgfid3}{0}{55380990}
\pgfsyspdfmark {pgfid2}{6708151}{48902215}
\@input{./capitoli/introduzione.aux}
\pgfsyspdfmark {pgfid5}{0}{55380990}
\pgfsyspdfmark {pgfid4}{6708151}{48902215}
\@input{./capitoli/A_richiami/richiami.aux}
\BKM@entry{id=1,open,dest={636861707465722E31},flags=2,srcline={2}}{31205269636869616D6920646920616E616C697369}
\pgfsyspdfmark {pgfid7}{0}{55380990}
\pgfsyspdfmark {pgfid6}{5594039}{48902215}
\BKM@entry{id=2,open,dest={73656374696F6E2E312E31},srcline={1}}{312E312054656F72656D692064656C6C6120646976657267656E7A612C2064656C206772616469656E746520652064656C20726F746F7265}
\BKM@entry{id=3,open,dest={73756273656374696F6E2E312E312E31},srcline={2}}{312E312E31204C656D6D6120646920477265656E}
\BKM@entry{id=4,open,dest={73756273656374696F6E2E312E312E32},srcline={112}}{312E312E3220447565207574696C69206C656D6D69}
\BKM@entry{id=5,open,dest={73756273656374696F6E2E312E312E33},srcline={234}}{312E312E332054656F72656D612064656C6C6120646976657267656E7A612C2064656C206772616469656E746520652064656C20726F746F7265}
\BKM@entry{id=6,open,dest={73656374696F6E2E312E32},srcline={388}}{312E322043616D706920766574746F7269616C6920636F6E736572766174697669}
\BKM@entry{id=7,open,dest={73656374696F6E2E312E33},srcline={4}}{312E332044657269766174612074656D706F72616C6520646920696E74656772616C6920737520646F6D696E6920646970656E64656E74692064616C2074656D706F3A20666F726D756C65206469204C6569626E697A}
\BKM@entry{id=8,open,dest={73656374696F6E2E312E34},srcline={2}}{312E34204465736372697A696F6E65206C616772616E6769616E612C2065756C657269616E6120652061726269747261726961}
\BKM@entry{id=9,open,dest={73756273656374696F6E2E312E342E31},srcline={4}}{312E342E31204465736372697A696F6E65206C6F63616C65206E656C2070726F626C656D6120646966666572656E7A69616C65}
\BKM@entry{id=10,open,dest={73756273656374696F6E2E312E342E32},srcline={73}}{312E342E32204465736372697A696F6E6520676C6F62616C65206E656C2070726F626C656D6120696E74656772616C65}
\BKM@entry{id=11,open,dest={73656374696F6E2E312E35},srcline={1}}{312E352042696C616E636920696E74656772616C69}
\BKM@entry{id=12,open,dest={73756273656374696F6E2E312E352E31},srcline={11}}{312E352E312042696C616E63696F206469206D61737361}
\BKM@entry{id=13,open,dest={73756273656374696F6E2E312E352E32},srcline={18}}{312E352E32205072696D6120657175617A696F6E652063617264696E616C6520652062696C616E63696F2064656C6C61207175616E7469745C333430206469206D6F746F}
\BKM@entry{id=14,open,dest={73756273656374696F6E2E312E352E33},srcline={31}}{312E352E33205365636F6E646120657175617A696F6E652063617264696E616C6520652062696C616E63696F2064656C206D6F6D656E746F2064656C6C61207175616E7469745C333430206469206D6F746F}
\BKM@entry{id=15,open,dest={73756273656374696F6E2E312E352E34},srcline={43}}{312E352E342042696C616E63696F20646920656E657267696120746F74616C65}
\BKM@entry{id=16,open,dest={73756273656374696F6E2E312E352E35},srcline={76}}{312E352E352042696C616E636920696E74656772616C692070657220766F6C756D6920696E206D6F746F206172626974726172696F}
\@input{./capitoli/B_tensori/tensori_algebra.aux}
\BKM@entry{id=17,open,dest={636861707465722E32},flags=2,srcline={2}}{3220496E74726F64757A696F6E6520616C6C27616C67656272612074656E736F7269616C65}
\pgfsyspdfmark {pgfid11}{0}{55380990}
\pgfsyspdfmark {pgfid10}{5594039}{48902215}
\BKM@entry{id=18,open,dest={73656374696F6E2E322E31},srcline={54}}{322E31205269636869616D6920646920616C6765627261206C696E65617265}
\BKM@entry{id=19,open,dest={73756273656374696F6E2E322E312E31},srcline={119}}{322E312E312043616D62696F20646920626173652065207265676F6C652064692074726173666F726D617A696F6E653A20636F76617269616E7A61206520636F6E74726176617269616E7A612E}
\BKM@entry{id=20,open,dest={73756273656374696F6E2E322E312E32},srcline={170}}{322E312E3220566574746F726920652062617369206F72746F726E6F6D616C69}
\BKM@entry{id=21,open,dest={73656374696F6E2E322E32},srcline={264}}{322E3220416C6765627261206D756C74696C696E65617265}
\BKM@entry{id=22,open,dest={73756273656374696F6E2E322E322E31},srcline={289}}{322E322E312050726F646F74746F2074656E736F7269616C652074726120766574746F7269}
\BKM@entry{id=23,open,dest={73756273656374696F6E2E322E322E32},srcline={303}}{322E322E3220426173652070726F646F74746F206520636F6D706F6E656E746920646920756E2074656E736F7265}
\BKM@entry{id=24,open,dest={73756273656374696F6E2E322E322E33},srcline={352}}{322E322E3320416C63756E65206F706572617A696F6E692074656E736F7269616C69205C28495C293A20736F6D6D612065206D6F6C7469706C6963617A696F6E652070657220756E6F207363616C6172652E}
\BKM@entry{id=25,open,dest={73756273656374696F6E2E322E322E34},srcline={368}}{322E322E342050726F646F74746F2074656E736F7269616C65207472612074656E736F7269}
\BKM@entry{id=26,open,dest={73756273656374696F6E2E322E322E35},srcline={417}}{322E322E352043616D62696F20646920626173652065207265676F6C612064692074726173666F726D617A696F6E652064656C6C6520636F6D706F6E656E74693A20646566696E697A696F6E65206060636C61737369636127272064692074656E736F72652E}
\BKM@entry{id=27,open,dest={73756273656374696F6E2E322E322E36},srcline={473}}{322E322E3620416C63756E65206F706572617A696F6E692074656E736F7269616C69205C2849495C29}
\BKM@entry{id=28,open,dest={73756273656374696F6E2E322E322E37},srcline={545}}{322E322E3720416C63756E69206573656D7069}
\BKM@entry{id=29,open,dest={73756273656374696F6E2E322E322E38},srcline={795}}{322E322E3820436F7361206E6F6E205C33353020737461746F20646574746F}
\@input{./capitoli/B_tensori/tensori_calcolo.aux}
\BKM@entry{id=30,open,dest={636861707465722E33},flags=2,srcline={2}}{3320496E74726F64757A696F6E6520616C2063616C636F6C6F2074656E736F7269616C65}
\BKM@entry{id=31,open,dest={73656374696F6E2E332E31},srcline={1}}{332E312043616C636F6C6F20766574746F7269616C6520652074656E736F7269616C6520696E20636F6F7264696E6174652063757276696C696E6565}
\pgfsyspdfmark {pgfid20}{0}{55380990}
\pgfsyspdfmark {pgfid19}{5594039}{48902215}
\BKM@entry{id=32,open,dest={73756273656374696F6E2E332E312E31},srcline={80}}{332E312E312054656E736F7265206D65747269636F2E}
\BKM@entry{id=33,open,dest={73756273656374696F6E2E332E312E32},srcline={159}}{332E312E322053696D626F6C69206469204368726973746F6666656C2E}
\BKM@entry{id=34,open,dest={73656374696F6E2E332E32},srcline={200}}{332E32204F70657261746F726920646966666572656E7A69616C69}
\BKM@entry{id=35,open,dest={73756273656374696F6E2E332E322E31},srcline={218}}{332E322E31204772616469656E7465}
\BKM@entry{id=36,open,dest={73756273656374696F6E2E332E322E32},srcline={355}}{332E322E3220446976657267656E7A61}
\BKM@entry{id=37,open,dest={73756273656374696F6E2E332E322E33},srcline={441}}{332E322E33204F70657261746F726520646920616476657A696F6E65}
\BKM@entry{id=38,open,dest={73756273656374696F6E2E332E322E34},srcline={481}}{332E322E3420526F746F7265}
\BKM@entry{id=39,open,dest={73756273656374696F6E2E332E322E35},srcline={528}}{332E322E35204C61706C616369616E6F}
\BKM@entry{id=40,open,dest={73656374696F6E2E332E33},srcline={1}}{332E3320436F6F7264696E6174652063757276696C696E6565206F72746F676F6E616C69}
\BKM@entry{id=41,open,dest={73756273656374696F6E2E332E332E31},srcline={1}}{332E332E31204573656D70696F3A20636F6F7264696E6174652063696C696E647269636865}
\BKM@entry{id=42,open,dest={617070656E6469782E416C706831},flags=2,srcline={183}}{41204172676F6D656E74692064656C20636F72736F205C323035206573657263697A69}
\BKM@entry{id=43,open,dest={73656374696F6E2E416C7068312E31},srcline={1}}{412E312053746174696361}
\BKM@entry{id=44,open,dest={73656374696F6E2E416C7068312E32},srcline={2}}{412E322054656E73696F6E6520737570657266696369616C65}
\BKM@entry{id=45,open,dest={73656374696F6E2E416C7068312E33},srcline={3}}{412E332043696E656D6174696361}
\BKM@entry{id=46,open,dest={73656374696F6E2E416C7068312E34},srcline={4}}{412E342042696C616E6369}
\BKM@entry{id=47,open,dest={73656374696F6E2E416C7068312E35},srcline={5}}{412E352054656F72656D61206469204265726E6F756C6C69}
\BKM@entry{id=48,open,dest={73656374696F6E2E416C7068312E36},srcline={6}}{412E3620536F6C757A696F6E6920657361747465}
\BKM@entry{id=49,open,dest={73656374696F6E2E416C7068312E37},srcline={7}}{412E372053696D696C69747564696E65}
\BKM@entry{id=50,open,dest={73656374696F6E2E416C7068312E38},srcline={8}}{412E38204165726F64696E616D696361}
\BKM@entry{id=51,open,dest={73656374696F6E2E416C7068312E39},srcline={9}}{412E392053747261746F206C696D697465}
\BKM@entry{id=52,open,dest={73656374696F6E2E416C7068312E3130},srcline={10}}{412E31302053746162696C69745C33343020666C7569646F64696E616D696361206520747572626F6C656E7A61}
\global\mtcsecondpartfalse
\@writefile{toc}{\contentsline {chapter}{\numberline {A}Argomenti del corso -- esercizi}{65}{appendix.Alph1}\protected@file@percent }
\@writefile{lof}{\addvspace {10\p@ }}
\@writefile{lot}{\addvspace {10\p@ }}
\pgfsyspdfmark {pgfid32}{0}{55380990}
\pgfsyspdfmark {pgfid31}{5594039}{48902215}
\@writefile{lof}{\contentsline {xchapter}{Argomenti del corso -- esercizi}{65}{appendix.Alph1}\protected@file@percent }
\@writefile{lot}{\contentsline {xchapter}{Argomenti del corso -- esercizi}{65}{appendix.Alph1}\protected@file@percent }
\newlabel{ch:argomenti}{{A}{65}{Argomenti del corso -- esercizi}{appendix.Alph1}{}}
\@writefile{toc}{\contentsline {section}{\numberline {A.1}Statica}{65}{section.Alph1.1}\protected@file@percent }
\@writefile{toc}{\contentsline {section}{\numberline {A.2}Tensione superficiale}{65}{section.Alph1.2}\protected@file@percent }
\@writefile{toc}{\contentsline {section}{\numberline {A.3}Cinematica}{65}{section.Alph1.3}\protected@file@percent }
\@writefile{toc}{\contentsline {section}{\numberline {A.4}Bilanci}{65}{section.Alph1.4}\protected@file@percent }
\@writefile{toc}{\contentsline {section}{\numberline {A.5}Teorema di Bernoulli}{65}{section.Alph1.5}\protected@file@percent }
\@writefile{toc}{\contentsline {section}{\numberline {A.6}Soluzioni esatte}{65}{section.Alph1.6}\protected@file@percent }
\@writefile{toc}{\contentsline {section}{\numberline {A.7}Similitudine}{65}{section.Alph1.7}\protected@file@percent }
\@writefile{toc}{\contentsline {section}{\numberline {A.8}Aerodinamica}{65}{section.Alph1.8}\protected@file@percent }
\@writefile{toc}{\contentsline {section}{\numberline {A.9}Strato limite}{65}{section.Alph1.9}\protected@file@percent }
\@writefile{toc}{\contentsline {section}{\numberline {A.10}Stabilit\IeC {\`a} fluidodinamica e turbolenza}{65}{section.Alph1.10}\protected@file@percent }
\ttl@finishall
