\relax 
\providecommand\hyper@newdestlabel[2]{}
\@nameuse{bbl@beforestart}
\providecommand\HyperFirstAtBeginDocument{\AtBeginDocument}
\HyperFirstAtBeginDocument{\ifx\hyper@anchor\@undefined
\global\let\oldcontentsline\contentsline
\gdef\contentsline#1#2#3#4{\oldcontentsline{#1}{#2}{#3}}
\global\let\oldnewlabel\newlabel
\gdef\newlabel#1#2{\newlabelxx{#1}#2}
\gdef\newlabelxx#1#2#3#4#5#6{\oldnewlabel{#1}{{#2}{#3}}}
\AtEndDocument{\ifx\hyper@anchor\@undefined
\let\contentsline\oldcontentsline
\let\newlabel\oldnewlabel
\fi}
\fi}
\global\let\hyper@last\relax 
\gdef\HyperFirstAtBeginDocument#1{#1}
\providecommand\HyField@AuxAddToFields[1]{}
\providecommand\HyField@AuxAddToCoFields[2]{}
\babel@aux{italian}{}
\babel@aux{italian}{}
\@writefile{toc}{\contentsline {section}{\numberline {1}Traslazione, rotazione e deformazione e deformazione di un elemento di fluido}{2}{section.1}\protected@file@percent }
\newlabel{eqn:ddxdt:tens}{{3}{3}{Traslazione, rotazione e deformazione e deformazione di un elemento di fluido}{equation.1.3}{}}
\newlabel{eqn:grad}{{5}{3}{Traslazione, rotazione e deformazione e deformazione di un elemento di fluido}{equation.1.5}{}}
\newlabel{eqn:d}{{6}{3}{Traslazione, rotazione e deformazione e deformazione di un elemento di fluido}{equation.1.6}{}}
\newlabel{eqn:w}{{7}{4}{Traslazione, rotazione e deformazione e deformazione di un elemento di fluido}{equation.1.7}{}}
\newlabel{eqn:w}{{8}{4}{Traslazione, rotazione e deformazione e deformazione di un elemento di fluido}{equation.1.8}{}}
\newlabel{eqn:evo:1}{{9}{4}{Traslazione, rotazione e deformazione e deformazione di un elemento di fluido}{equation.1.9}{}}
\@writefile{toc}{\contentsline {subsection}{\numberline {1.1}Esempio: corrente di Newton}{5}{subsection.1.1}\protected@file@percent }
\@writefile{toc}{\contentsline {section}{\numberline {2}Legame tra le linee di corrente e le linee di livello della funzione di corrente $\psi $: problema 2D}{7}{section.2}\protected@file@percent }
\newlabel{eqn:psi}{{19}{7}{Legame tra le linee di corrente e le linee di livello della funzione di corrente $\psi $: problema 2D}{equation.2.19}{}}
\@writefile{lof}{\contentsline {figure}{\numberline {1}{\ignorespaces Relazione tra il campo e la funzione di corrente per un campo di velocità piano che soddisfa il vincolo di incomprimibilità. Il gradiente della funzione di corrente è perpendicolare in ogni punto al vettore velocità e, di conseguenza, le isolinee della funzione di corrente coincidono con le linee di corrente del campo di velocità.}}{9}{figure.1}\protected@file@percent }
\newlabel{fig:streaml}{{1}{9}{Relazione tra il campo e la funzione di corrente per un campo di velocità piano che soddisfa il vincolo di incomprimibilità. Il gradiente della funzione di corrente è perpendicolare in ogni punto al vettore velocità e, di conseguenza, le isolinee della funzione di corrente coincidono con le linee di corrente del campo di velocità}{figure.1}{}}
\@writefile{toc}{\contentsline {section}{\numberline {3}Tensore degli sforzi}{10}{section.3}\protected@file@percent }
\@writefile{lof}{\contentsline {figure}{\numberline {2}{\ignorespaces tetraedro di Cauchy}}{10}{figure.2}\protected@file@percent }
\newlabel{fig:tetraedroCauchy}{{2}{10}{tetraedro di Cauchy}{figure.2}{}}
\newlabel{eqn:surfaces}{{23}{10}{Tensore degli sforzi}{equation.3.23}{}}
\@writefile{toc}{\contentsline {paragraph}{Bilancio di massa.}{11}{section*.2}\protected@file@percent }
\newlabel{eqn:dV:mass}{{25}{11}{Bilancio di massa}{equation.3.25}{}}
\@writefile{toc}{\contentsline {paragraph}{Bilancio della quantità di moto.}{11}{section*.3}\protected@file@percent }
\newlabel{eqn:dV:equil}{{29}{12}{Bilancio della quantità di moto}{equation.3.29}{}}
\newlabel{eqn:t:comp}{{30}{12}{Bilancio della quantità di moto}{equation.3.30}{}}
\@writefile{toc}{\contentsline {paragraph}{Bilancio della quantità di moto.}{13}{section*.4}\protected@file@percent }
\@writefile{toc}{\contentsline {section}{\numberline {4}Equazione della quantità di moto e curvatura delle linee di corrente}{15}{section.4}\protected@file@percent }
\@writefile{toc}{\contentsline {paragraph}{Richiami di geometria delle curve nello spazio.}{15}{section*.5}\protected@file@percent }
\@writefile{toc}{\contentsline {paragraph}{Ritorno al bilancio della quantità di moto.}{17}{section*.6}\protected@file@percent }
\@writefile{toc}{\contentsline {section}{\numberline {5}Teoremi di Bernoulli ed equazione della vorticità}{19}{section.5}\protected@file@percent }
\newlabel{eqn:bilanci:crocco}{{54}{19}{Teoremi di Bernoulli ed equazione della vorticità}{equation.5.54}{}}
\@writefile{toc}{\contentsline {paragraph}{Prima forma del teorema di Bernoulli}{19}{section*.7}\protected@file@percent }
\@writefile{toc}{\contentsline {paragraph}{Seconda forma del teorema di Bernoulli}{19}{section*.8}\protected@file@percent }
\@writefile{toc}{\contentsline {paragraph}{Terza forma del teorema di Bernoulli}{20}{section*.9}\protected@file@percent }
\@writefile{toc}{\contentsline {paragraph}{Teoremi di Bernoulli per fluidi viscosi incomprimibili}{20}{section*.10}\protected@file@percent }
\@writefile{toc}{\contentsline {section}{\numberline {6}Teorema di Kutta--Jukowski}{21}{section.6}\protected@file@percent }
\newlabel{eqn:vel:dec}{{60}{21}{Teorema di Kutta--Jukowski}{equation.6.60}{}}
\newlabel{eqn:kj:1}{{65}{21}{Teorema di Kutta--Jukowski}{equation.6.65}{}}
\@writefile{lof}{\contentsline {figure}{\numberline {3}{\ignorespaces volume di controllo per la dimostrazione del teorema di Kutta--Jukowski.}}{22}{figure.3}\protected@file@percent }
\newlabel{fig:kj}{{3}{22}{volume di controllo per la dimostrazione del teorema di Kutta--Jukowski}{figure.3}{}}
\@writefile{toc}{\contentsline {section}{\numberline {7}Cenni sulla similitudine}{24}{section.7}\protected@file@percent }
\@writefile{toc}{\contentsline {subsection}{\numberline {7.1}Adimensionalizzazione delle equazioni di Navier--Stokes}{24}{subsection.7.1}\protected@file@percent }
\@writefile{toc}{\contentsline {subsection}{\numberline {7.2}Analisi dimensionale}{25}{subsection.7.2}\protected@file@percent }
\@writefile{toc}{\contentsline {subsection}{\numberline {7.3}Visione ``unificata'' di adimenisonalizzazione rigorosa e analisi dimensionale}{27}{subsection.7.3}\protected@file@percent }
\@writefile{toc}{\contentsline {section}{\numberline {8}Equazione integrale di Von Karman per lo strato limite}{29}{section.8}\protected@file@percent }
\newlabel{eqn:VKint}{{89}{29}{Equazione integrale di Von Karman per lo strato limite}{equation.8.89}{}}
\newlabel{eqn:VKc}{{90}{29}{Equazione integrale di Von Karman per lo strato limite}{equation.8.90}{}}
\newlabel{eqn:VKb}{{91}{29}{Equazione integrale di Von Karman per lo strato limite}{equation.8.91}{}}
\@writefile{toc}{\contentsline {subsection}{\numberline {8.1}Metodo di Thwaites per lo strato limite laminare}{30}{subsection.8.1}\protected@file@percent }
\newlabel{eqn:vkie}{{95}{30}{Metodo di Thwaites per lo strato limite laminare}{equation.8.95}{}}
\@writefile{lof}{\contentsline {figure}{\numberline {4}{\ignorespaces Grandezze fisiche ``rilevanti'' per un profilo di strato limite laminare.}}{31}{figure.4}\protected@file@percent }
\newlabel{fig:bl:dim_an}{{4}{31}{Grandezze fisiche ``rilevanti'' per un profilo di strato limite laminare}{figure.4}{}}
\@writefile{toc}{\contentsline {paragraph}{Analisi dimensionale dello strato limite.}{31}{section*.11}\protected@file@percent }
\@writefile{toc}{\contentsline {paragraph}{Metodo di Thwaites: alcune ipotesi.}{32}{section*.12}\protected@file@percent }
\@writefile{lof}{\contentsline {figure}{\numberline {5}{\ignorespaces $\ell (m)$, per correnti accelerate, $m<0$.}}{34}{figure.5}\protected@file@percent }
\newlabel{fig:ell_m_neg}{{5}{34}{$\ell (m)$, per correnti accelerate, $m<0$}{figure.5}{}}
\@writefile{lof}{\contentsline {figure}{\numberline {6}{\ignorespaces $\ell (m)$, per correnti con gradiente di pressione avverso, $m>0$.}}{34}{figure.6}\protected@file@percent }
\newlabel{fig:ell_m_pos}{{6}{34}{$\ell (m)$, per correnti con gradiente di pressione avverso, $m>0$}{figure.6}{}}
\@writefile{toc}{\contentsline {paragraph}{Metodo di Thwaites ed equazione integrale di Von Karman.}{34}{section*.13}\protected@file@percent }
\@writefile{lof}{\contentsline {figure}{\numberline {7}{\ignorespaces $H(m)$, per correnti accelerate, $m<0$.}}{35}{figure.7}\protected@file@percent }
\newlabel{fig:H_m_neg}{{7}{35}{$H(m)$, per correnti accelerate, $m<0$}{figure.7}{}}
\@writefile{lof}{\contentsline {figure}{\numberline {8}{\ignorespaces $H(m)$, per correnti con gradiente di pressione avverso, $m>0$.}}{35}{figure.8}\protected@file@percent }
\newlabel{fig:H_m_pos}{{8}{35}{$H(m)$, per correnti con gradiente di pressione avverso, $m>0$}{figure.8}{}}
\newlabel{eqn:vkie:2}{{109}{36}{Metodo di Thwaites ed equazione integrale di Von Karman}{equation.8.109}{}}
\@writefile{toc}{\contentsline {paragraph}{Linearizzazione di $L(m)$.}{36}{section*.14}\protected@file@percent }
\newlabel{eqn:vkie:3}{{111}{36}{Linearizzazione di $L(m)$}{equation.8.111}{}}
\@writefile{toc}{\contentsline {paragraph}{Ricostruzione delle altre grandezze fisiche.}{37}{section*.15}\protected@file@percent }
\@writefile{toc}{\contentsline {subsection}{\numberline {8.2}Criteri di transizione}{37}{subsection.8.2}\protected@file@percent }
\@writefile{toc}{\contentsline {subsection}{\numberline {8.3}Metodo di Head per lo strato limite turbolento}{37}{subsection.8.3}\protected@file@percent }
\@writefile{toc}{\contentsline {section}{\numberline {9}Introduzione alla turbolenza}{38}{section.9}\protected@file@percent }
\@writefile{toc}{\contentsline {subsection}{\numberline {9.1}Equazioni mediate di Reynolds -- RANS}{39}{subsection.9.1}\protected@file@percent }
\newlabel{sec:rans}{{9.1}{39}{Equazioni mediate di Reynolds -- RANS}{subsection.9.1}{}}
\@writefile{toc}{\contentsline {subsubsection}{\numberline {9.1.1}(U)RANS}{39}{subsubsection.9.1.1}\protected@file@percent }
\newlabel{eqn:urans}{{119}{39}{(U)RANS}{equation.9.119}{}}
\@writefile{toc}{\contentsline {subsubsection}{\numberline {9.1.2}Equazioni per le fluttuazioni}{40}{subsubsection.9.1.2}\protected@file@percent }
\newlabel{eqn:fluctuations}{{120}{40}{Equazioni per le fluttuazioni}{equation.9.120}{}}
\@writefile{toc}{\contentsline {subsection}{\numberline {9.2}Equazioni dell'energia cinetica}{40}{subsection.9.2}\protected@file@percent }
\newlabel{sec:kin_en}{{9.2}{40}{Equazioni dell'energia cinetica}{subsection.9.2}{}}
\@writefile{toc}{\contentsline {subsubsection}{\numberline {9.2.1}Equazione dell'energia cinetica del moto medio}{40}{subsubsection.9.2.1}\protected@file@percent }
\newlabel{sec:ke_avg}{{9.2.1}{40}{Equazione dell'energia cinetica del moto medio}{subsubsection.9.2.1}{}}
\@writefile{toc}{\contentsline {subsubsection}{\numberline {9.2.2}Equazione dell'energia cinetica turbolenta}{41}{subsubsection.9.2.2}\protected@file@percent }
\newlabel{sec:ke_k}{{9.2.2}{41}{Equazione dell'energia cinetica turbolenta}{subsubsection.9.2.2}{}}
\@writefile{toc}{\contentsline {subsection}{\numberline {9.3}Scale della turbolenza}{41}{subsection.9.3}\protected@file@percent }
\newlabel{sec:stat}{{9.3}{41}{Scale della turbolenza}{subsection.9.3}{}}
\@writefile{toc}{\contentsline {subsubsection}{\numberline {9.3.1}Correlazioni a due punti e spettri}{42}{subsubsection.9.3.1}\protected@file@percent }
\@writefile{toc}{\contentsline {subsubsection}{\numberline {9.3.2}Ipotesi di Kolmogorov, K41}{43}{subsubsection.9.3.2}\protected@file@percent }
\@writefile{toc}{\contentsline {subsubsection}{\numberline {9.3.3}Equazioni di Navier--Stokes nello spazio dei numeri d'onda}{45}{subsubsection.9.3.3}\protected@file@percent }
\newlabel{eqn:ns_fourier}{{142}{46}{Equazioni di Navier--Stokes nello spazio dei numeri d'onda}{equation.9.142}{}}
\@writefile{toc}{\contentsline {paragraph}{Effetti viscosi, $\nu |\bm  {\kappa }|^2 \hat  {\bm  {u}}$.}{46}{section*.16}\protected@file@percent }
\@writefile{toc}{\contentsline {paragraph}{Ruolo della ``pressione'' nelle equazioni di NS incomprimibili.}{46}{section*.17}\protected@file@percent }
\@writefile{toc}{\contentsline {subsection}{\numberline {9.4}Correnti turbolente}{47}{subsection.9.4}\protected@file@percent }
\newlabel{sec:turbulent_flows}{{9.4}{47}{Correnti turbolente}{subsection.9.4}{}}
\@writefile{toc}{\contentsline {subsubsection}{\numberline {9.4.1}Turbolenza omogena isotropa}{48}{subsubsection.9.4.1}\protected@file@percent }
\@writefile{toc}{\contentsline {subsubsection}{\numberline {9.4.2}Correnti di taglio (shear flow)}{48}{subsubsection.9.4.2}\protected@file@percent }
\@writefile{toc}{\contentsline {subsubsection}{\numberline {9.4.3}Turbolenza di parete}{48}{subsubsection.9.4.3}\protected@file@percent }
\@writefile{toc}{\contentsline {paragraph}{Corrente turbolenta in canale piano infinito.}{48}{section*.18}\protected@file@percent }
\@writefile{toc}{\contentsline {paragraph}{Strato limite turbolento.}{50}{section*.19}\protected@file@percent }
\@writefile{toc}{\contentsline {subsection}{\numberline {9.5}Modelli numerici}{50}{subsection.9.5}\protected@file@percent }
\newlabel{sec:numerical_methods}{{9.5}{50}{Modelli numerici}{subsection.9.5}{}}
\@writefile{toc}{\contentsline {subsubsection}{\numberline {9.5.1}Modelli basati sulla viscosità turbolenta}{50}{subsubsection.9.5.1}\protected@file@percent }
\@writefile{toc}{\contentsline {subsubsection}{\numberline {9.5.2}LES}{51}{subsubsection.9.5.2}\protected@file@percent }
